{
	"dbSortingObjs": [
		{
			"db": "Financials",
			"collection": "Principal",
			"nodes": [
				"product_type",
				"country"
			],
			"entries": [
				"name",
				"ticker"
			],
			"show": true
		},
		{
			"db": "Financials",
			"collection": "Principal",
			"nodes": [
				"product_type",
				"market"
			],
			"entries": [
				"name",
				"ticker"
			],
			"show": true
		}
	]
}